{
    "page": 2,
    "per_page": 6,
    "total": 12,
    "total_pages": 2,
    "data": [
        {
            "id": 7,
            "name": "sand dollar",
            "year": 2006,
            "color": "#DECDBE",
            "pantone_value": "13-1106"
        },
        {
            "id": 8,
            "name": "chili pepper",
            "year": 2007,
            "color": "#9B1B30",
            "pantone_value": "19-1557"
        },
        {
            "id": 9,
            "name": "blue iris",
            "year": 2008,
            "color": "#5A5B9F",
            "pantone_value": "18-3943"
        },
        {
            "id": 10,
            "name": "mimosa",
            "year": 2009,
            "color": "#F0C05A",
            "pantone_value": "14-0848"
        },
        {
            "id": 11,
            "name": "turquoise",
            "year": 2010,
            "color": "#45B5AA",
            "pantone_value": "15-5519"
        },
        {
            "id": 12,
            "name": "honeysuckle",
            "year": 2011,
            "color": "#D94F70",
            "pantone_value": "18-2120"
        }
    ],
    "support": {
        "url": "https://contentcaddy.io?utm_source=reqres&utm_medium=json&utm_campaign=referral",
        "text": "Tired of writing endless social media content? Let Content Caddy generate it for you."
    },
    "_meta": {
        "powered_by": "🚀 ReqRes - Deploy backends in 30 seconds",
        "upgrade_url": "https://app.reqres.in/upgrade",
        "docs_url": "https://reqres.in",
        "template_gallery": "https://app.reqres.in/templates",
        "message": "This API is powered by ReqRes. Deploy your own backend in 30 seconds!",
        "features": [
            "30 Second Backend Templates",
            "Custom API Endpoints",
            "Data Persistence",
            "Real-time Analytics"
        ],
        "upgrade_cta": "Upgrade to Pro for unlimited requests, custom endpoints, and data persistence"
    }
}